<?xml version="1.0" encoding="UTF-8" standalone="no"?>
<!-- Created with Inkscape (http://www.inkscape.org/) -->

<svg
   width="41.362804mm"
   height="17.207581mm"
   viewBox="0 0 41.362804 17.207581"
   version="1.1"
   id="svg1025"
   inkscape:version="1.1.2 (0a00cf5339, 2022-02-04)"
   sodipodi:docname="reduced_pr_cavity_sinkless.svg"
   xmlns:inkscape="http://www.inkscape.org/namespaces/inkscape"
   xmlns:sodipodi="http://sodipodi.sourceforge.net/DTD/sodipodi-0.dtd"
   xmlns="http://www.w3.org/2000/svg"
   xmlns:svg="http://www.w3.org/2000/svg"
   xmlns:ns2="http://www.iki.fi/pav/software/textext/">
  <sodipodi:namedview
     id="namedview1027"
     pagecolor="#505050"
     bordercolor="#ffffff"
     borderopacity="1"
     inkscape:pageshadow="0"
     inkscape:pageopacity="0"
     inkscape:pagecheckerboard="1"
     inkscape:document-units="mm"
     showgrid="false"
     inkscape:snap-smooth-nodes="false"
     inkscape:object-paths="true"
     fit-margin-top="0"
     fit-margin-left="0"
     fit-margin-right="0"
     fit-margin-bottom="0"
     inkscape:zoom="4.1373683"
     inkscape:cx="38.430227"
     inkscape:cy="24.411653"
     inkscape:window-width="1920"
     inkscape:window-height="1007"
     inkscape:window-x="1920"
     inkscape:window-y="0"
     inkscape:window-maximized="1"
     inkscape:current-layer="layer1" />
  <defs
     id="defs1022">
    <g
       id="id-ebcc7aa1-2cb3-45b9-9321-5e359c46039a">
      <symbol
         overflow="visible"
         id="id-267ce042-3456-47ba-a77b-aa7590a0dc17">
        <path
           style="stroke:none;stroke-width:0"
           d=""
           id="id-8ead0948-e268-459d-9b46-70b7a0de2cfd" />
      </symbol>
      <symbol
         overflow="visible"
         id="id-9bff1b06-49a2-4231-aa64-445d02e1555b">
        <path
           style="stroke:none;stroke-width:0"
           d="m 2.9375,-6.375 c 0,-0.25 0,-0.265625 -0.234375,-0.265625 C 2.078125,-6 1.203125,-6 0.890625,-6 v 0.3125 c 0.203125,0 0.78125,0 1.296875,-0.265625 v 5.171875 c 0,0.359375 -0.03125,0.46875 -0.921875,0.46875 h -0.3125 V 0 c 0.34375,-0.03125 1.203125,-0.03125 1.609375,-0.03125 0.390625,0 1.265625,0 1.609375,0.03125 v -0.3125 h -0.3125 c -0.90625,0 -0.921875,-0.109375 -0.921875,-0.46875 z m 0,0"
           id="id-2258aa6f-1dca-417c-807e-21760c39b962" />
      </symbol>
      <symbol
         overflow="visible"
         id="id-6fc1a139-a439-4db6-a2b4-05268eb104f0">
        <path
           style="stroke:none;stroke-width:0"
           d="m 2.9375,-1.640625 v 0.859375 c 0,0.359375 -0.03125,0.46875 -0.765625,0.46875 H 1.96875 V 0 C 2.375,-0.03125 2.890625,-0.03125 3.3125,-0.03125 c 0.421875,0 0.9375,0 1.359375,0.03125 v -0.3125 h -0.21875 c -0.734375,0 -0.75,-0.109375 -0.75,-0.46875 V -1.640625 H 4.6875 v -0.3125 H 3.703125 v -4.53125 c 0,-0.203125 0,-0.265625 -0.171875,-0.265625 -0.078125,0 -0.109375,0 -0.1875,0.125 l -3.0625,4.671875 v 0.3125 z m 0.046875,-0.3125 H 0.5625 l 2.421875,-3.71875 z m 0,0"
           id="id-5ab99b51-4f34-4a39-b86d-0fe7ae0d9822" />
      </symbol>
    </g>
  </defs>
  <g
     inkscape:label="Layer 1"
     inkscape:groupmode="layer"
     id="layer1"
     transform="translate(-79.479246,-139.06149)">
    <path
       style="fill:#000000;fill-opacity:1;fill-rule:nonzero;stroke:none;stroke-width:0"
       d="m 113.56528,147.87802 1.00343,1.24624 -0.18945,-0.87324 0.7852,-0.42648"
       id="id-543420be-b900-4272-b432-286b7277178e-5-9-1-5-6-1"
       inkscape:transform-center-x="-0.79959"
       inkscape:transform-center-y="0.59638697" />
    <circle
       style="fill:#bcbcbc;fill-opacity:1;stroke:#000000;stroke-width:0.3;stroke-miterlimit:4;stroke-dasharray:none;stroke-dashoffset:0;stroke-opacity:1"
       id="path2129-6-88"
       cx="90.070137"
       cy="-146.58873"
       r="2.6316259"
       transform="scale(1,-1)" />
    <circle
       style="fill:#bcbcbc;fill-opacity:1;stroke:#000000;stroke-width:0.3;stroke-miterlimit:4;stroke-dasharray:none;stroke-dashoffset:0;stroke-opacity:1"
       id="path2129-6-1-3"
       cx="111.30929"
       cy="-146.84937"
       r="2.6316259"
       transform="scale(1,-1)" />
    <circle
       style="fill:#bcbcbc;fill-opacity:1;stroke:#000000;stroke-width:0.3;stroke-miterlimit:4;stroke-dasharray:none;stroke-dashoffset:0;stroke-opacity:1"
       id="path2129-6-4-6-0"
       cx="82.260872"
       cy="-153.48744"
       r="2.6316259"
       transform="scale(1,-1)" />
    <g
       transform="matrix(0.352778,0,0,0.352778,109.7611,145.65875)"
       ns2:version="1.8.0"
       ns2:texconverter="pdflatex"
       ns2:pdfconverter="inkscape"
       ns2:text="$14$"
       ns2:preamble="/home/alexei/.config/inkscape/extensions/textext/default_packages.tex"
       ns2:scale="1.0"
       ns2:alignment="middle center"
       ns2:stroke-to-path="0"
       ns2:inkscapeversion="1.1.2"
       ns2:jacobian_sqrt="0.352778"
       id="g1990">
      <defs
         id="id-8d299c8c-edd9-4be7-a9eb-b141f6a2684e">
        <g
           id="g1412">
          <symbol
             overflow="visible"
             id="symbol1402">
            <path
               style="stroke:none;stroke-width:0"
               d=""
               id="path1400" />
          </symbol>
          <symbol
             overflow="visible"
             id="symbol1406">
            <path
               style="stroke:none;stroke-width:0"
               d="m 2.9375,-6.375 c 0,-0.25 0,-0.265625 -0.234375,-0.265625 C 2.078125,-6 1.203125,-6 0.890625,-6 v 0.3125 c 0.203125,0 0.78125,0 1.296875,-0.265625 v 5.171875 c 0,0.359375 -0.03125,0.46875 -0.921875,0.46875 h -0.3125 V 0 c 0.34375,-0.03125 1.203125,-0.03125 1.609375,-0.03125 0.390625,0 1.265625,0 1.609375,0.03125 v -0.3125 h -0.3125 c -0.90625,0 -0.921875,-0.109375 -0.921875,-0.46875 z m 0,0"
               id="path1404" />
          </symbol>
          <symbol
             overflow="visible"
             id="symbol1410">
            <path
               style="stroke:none;stroke-width:0"
               d="m 2.9375,-1.640625 v 0.859375 c 0,0.359375 -0.03125,0.46875 -0.765625,0.46875 H 1.96875 V 0 C 2.375,-0.03125 2.890625,-0.03125 3.3125,-0.03125 c 0.421875,0 0.9375,0 1.359375,0.03125 v -0.3125 h -0.21875 c -0.734375,0 -0.75,-0.109375 -0.75,-0.46875 V -1.640625 H 4.6875 v -0.3125 H 3.703125 v -4.53125 c 0,-0.203125 0,-0.265625 -0.171875,-0.265625 -0.078125,0 -0.109375,0 -0.1875,0.125 l -3.0625,4.671875 v 0.3125 z m 0.046875,-0.3125 H 0.5625 l 2.421875,-3.71875 z m 0,0"
               id="path1408" />
          </symbol>
        </g>
      </defs>
      <g
         id="id-783b31d8-0d8e-4566-a4fa-b5a81c3e8b8c"
         transform="translate(-149.603,-128.015)">
        <g
           style="fill:#000000;fill-opacity:1"
           id="id-03f87e39-9510-4d30-ba92-1919bd1c1919">
          <g
             transform="translate(148.712,134.765)"
             id="g1983">
            <path
               style="stroke:none;stroke-width:0"
               d="m 2.9375,-6.375 c 0,-0.25 0,-0.265625 -0.234375,-0.265625 C 2.078125,-6 1.203125,-6 0.890625,-6 v 0.3125 c 0.203125,0 0.78125,0 1.296875,-0.265625 v 5.171875 c 0,0.359375 -0.03125,0.46875 -0.921875,0.46875 h -0.3125 V 0 c 0.34375,-0.03125 1.203125,-0.03125 1.609375,-0.03125 0.390625,0 1.265625,0 1.609375,0.03125 v -0.3125 h -0.3125 c -0.90625,0 -0.921875,-0.109375 -0.921875,-0.46875 z m 0,0"
               id="id-776fbc6b-d062-4bf8-8534-9dd61ddf27d2" />
          </g>
          <g
             transform="translate(153.693,134.765)"
             id="g1986">
            <path
               style="stroke:none;stroke-width:0"
               d="m 2.9375,-1.640625 v 0.859375 c 0,0.359375 -0.03125,0.46875 -0.765625,0.46875 H 1.96875 V 0 C 2.375,-0.03125 2.890625,-0.03125 3.3125,-0.03125 c 0.421875,0 0.9375,0 1.359375,0.03125 v -0.3125 h -0.21875 c -0.734375,0 -0.75,-0.109375 -0.75,-0.46875 V -1.640625 H 4.6875 v -0.3125 H 3.703125 v -4.53125 c 0,-0.203125 0,-0.265625 -0.171875,-0.265625 -0.078125,0 -0.109375,0 -0.1875,0.125 l -3.0625,4.671875 v 0.3125 z m 0.046875,-0.3125 H 0.5625 l 2.421875,-3.71875 z m 0,0"
               id="id-e16f5eee-20dd-4ad2-ac08-da32a035e37e" />
          </g>
        </g>
      </g>
    </g>
    <g
       transform="matrix(0.352778,0,0,0.352778,81.38444,154.6202)"
       id="g3106"
       style="fill:#000000;fill-opacity:1">
      <path
         style="stroke:none;stroke-width:0"
         d="m 4.578125,-3.1875 c 0,-0.796875 -0.046875,-1.59375 -0.390625,-2.328125 -0.453125,-0.96875 -1.28125,-1.125 -1.6875,-1.125 -0.609375,0 -1.328125,0.265625 -1.75,1.1875 -0.3125,0.6875 -0.359375,1.46875 -0.359375,2.265625 0,0.75 0.03125,1.640625 0.453125,2.40625 0.421875,0.796875 1.15625,1 1.640625,1 0.53125,0 1.296875,-0.203125 1.734375,-1.15625 0.3125,-0.6875 0.359375,-1.46875 0.359375,-2.25 z M 2.484375,0 C 2.09375,0 1.5,-0.25 1.328125,-1.203125 1.21875,-1.796875 1.21875,-2.71875 1.21875,-3.3125 c 0,-0.640625 0,-1.296875 0.078125,-1.828125 0.1875,-1.1875 0.9375,-1.28125 1.1875,-1.28125 0.328125,0 0.984375,0.1875 1.171875,1.171875 0.109375,0.5625 0.109375,1.3125 0.109375,1.9375 0,0.75 0,1.421875 -0.109375,2.0625 C 3.5,-0.296875 2.9375,0 2.484375,0 Z m 0,0"
         id="id-2c29f72d-9e84-4e72-9a39-eb3cfc95414a" />
    </g>
    <g
       transform="matrix(0.352778,0,0,0.352778,89.193702,147.76007)"
       id="g3112"
       style="fill:#000000;fill-opacity:1">
      <path
         style="stroke:none;stroke-width:0"
         d="m 1.265625,-0.765625 1.0625,-1.03125 c 1.546875,-1.375 2.140625,-1.90625 2.140625,-2.90625 0,-1.140625 -0.890625,-1.9375 -2.109375,-1.9375 -1.125,0 -1.859375,0.921875 -1.859375,1.8125 0,0.546875 0.5,0.546875 0.53125,0.546875 0.171875,0 0.515625,-0.109375 0.515625,-0.53125 0,-0.25 -0.1875,-0.515625 -0.53125,-0.515625 -0.078125,0 -0.09375,0 -0.125,0.015625 0.21875,-0.65625 0.765625,-1.015625 1.34375,-1.015625 0.90625,0 1.328125,0.8125 1.328125,1.625 C 3.5625,-3.90625 3.078125,-3.125 2.515625,-2.5 l -1.90625,2.125 C 0.5,-0.265625 0.5,-0.234375 0.5,0 H 4.203125 L 4.46875,-1.734375 H 4.234375 C 4.171875,-1.4375 4.109375,-1 4,-0.84375 3.9375,-0.765625 3.28125,-0.765625 3.0625,-0.765625 Z m 0,0"
         id="id-c5a14be7-b4af-417c-bb43-8aa287b57415" />
    </g>
    <path
       style="fill:none;stroke:#000000;stroke-width:0.264583px;stroke-linecap:butt;stroke-linejoin:miter;stroke-opacity:1"
       d="m 92.020778,144.82225 c 5.812104,-1.70608 11.825592,-2.31904 17.010512,0.70947"
       id="path2545" />
    <path
       style="fill:none;stroke:#000000;stroke-width:0.264583px;stroke-linecap:butt;stroke-linejoin:miter;stroke-opacity:1"
       d="m 108.81628,147.69221 c -4.85495,2.66971 -11.322694,2.12433 -16.390973,0.0707"
       id="path2582" />
    <path
       style="fill:none;stroke:#000000;stroke-width:0.264583px;stroke-linecap:butt;stroke-linejoin:miter;stroke-opacity:1"
       d="m 87.745236,145.35573 c -11.469246,-2.68575 4.355957,-11.5753 2.484985,-1.39375"
       id="path2619" />
    <path
       style="fill:none;stroke:#000000;stroke-width:0.264583px;stroke-linecap:butt;stroke-linejoin:miter;stroke-opacity:1"
       d="m 112.01859,144.31513 c 7.97925,-6.57424 13.94488,9.62062 1.68496,3.62646"
       id="path2621" />
    <path
       style="fill:#000000;fill-opacity:1;fill-rule:nonzero;stroke:none;stroke-width:0"
       d="m 92.358104,147.72531 1.016348,1.23572 -0.198559,-0.87122 0.780717,-0.43464"
       id="id-543420be-b900-4272-b432-286b7277178e-5-9-1-5-6-9"
       inkscape:transform-center-x="-0.7992635"
       inkscape:transform-center-y="0.58279697" />
    <path
       style="fill:#000000;fill-opacity:1;fill-rule:nonzero;stroke:none;stroke-width:0"
       d="m 109.13458,145.61218 -0.78676,-1.39318 0.0445,0.89244 -0.84423,0.29274"
       id="id-543420be-b900-4272-b432-286b7277178e-5-9-1-5-6-8"
       inkscape:transform-center-x="0.793255"
       inkscape:transform-center-y="-0.69660303" />
    <path
       style="fill:#000000;fill-opacity:1;fill-rule:nonzero;stroke:none;stroke-width:0"
       d="m 90.224108,144.07891 0.857835,-1.35059 -0.766094,0.45993 -0.656113,-0.60657"
       id="id-543420be-b900-4272-b432-286b7277178e-5-9-1-5-6-4"
       inkscape:transform-center-x="-0.1467345"
       inkscape:transform-center-y="-0.74861803" />
    <path
       style="fill:none;stroke:#000000;stroke-width:0.264583px;stroke-linecap:butt;stroke-linejoin:miter;stroke-opacity:1"
       d="m 84.021466,151.53148 c 1.759678,-0.44582 3.024375,-1.7531 4.421817,-2.87422"
       id="path2967" />
    <path
       style="fill:#000000;fill-opacity:1;fill-rule:nonzero;stroke:none;stroke-width:0"
       d="m 88.519713,148.5655 -1.522901,0.49066 0.883183,0.13577 0.117045,0.88585"
       id="id-543420be-b900-4272-b432-286b7277178e-5-9-1-5-6-9-8"
       inkscape:transform-center-x="0.76146"
       inkscape:transform-center-y="0.75614697" />
  </g>
</svg>
